\relax 
\providecommand\BKM@entry[2]{}
\catcode`"\active
\providecommand\HyperFirstAtBeginDocument{\AtBeginDocument}
\HyperFirstAtBeginDocument{\ifx\hyper@anchor\@undefined
\global\let\oldcontentsline\contentsline
\gdef\contentsline#1#2#3#4{\oldcontentsline{#1}{#2}{#3}}
\global\let\oldnewlabel\newlabel
\gdef\newlabel#1#2{\newlabelxx{#1}#2}
\gdef\newlabelxx#1#2#3#4#5#6{\oldnewlabel{#1}{{#2}{#3}}}
\AtEndDocument{\ifx\hyper@anchor\@undefined
\let\contentsline\oldcontentsline
\let\newlabel\oldnewlabel
\fi}
\fi}
\global\let\hyper@last\relax 
\gdef\HyperFirstAtBeginDocument#1{#1}
\providecommand\HyField@AuxAddToFields[1]{}
\select@language{portuguese}
\@writefile{toc}{\select@language{portuguese}}
\@writefile{lof}{\select@language{portuguese}}
\@writefile{lot}{\select@language{portuguese}}
\BKM@entry{id=1,open,dest={636861707465722A2E31},srcline={36}}{526573756D6F}
\@writefile{toc}{\contentsline {chapter}{Resumo}{i}{chapter*.1}}
\BKM@entry{id=2,open,dest={636861707465722A2E31},srcline={45}}{5C3331356E64696365}
\@writefile{toc}{\contentsline {chapter}{\IeC {\'I}ndice}{iii}{chapter*.1}}
\BKM@entry{id=3,open,dest={636861707465722A2E33},srcline={84}}{496E74726F64755C3334375C3334336F}
\citation{optRep}
\@writefile{toc}{\contentsline {chapter}{Introdu\IeC {\c c}\IeC {\~a}o}{1}{chapter*.3}}
\BKM@entry{id=4,open,dest={636861707465722E31},srcline={158}}{3120436F6E7369646572615C3334375C333635657320696E696369616973}
\citation{optRep}
\BKM@entry{id=5,open,dest={73656374696F6E2E312E31},srcline={180}}{312E312052656C615C3334375C3334336F2068617070656E732D6265666F726520656E747265206F706572615C3334375C3336356573}
\@writefile{toc}{\contentsline {chapter}{\numberline {1}Considera\IeC {\c c}\IeC {\~o}es iniciais}{3}{chapter.1}}
\@writefile{lof}{\addvspace {10\p@ }}
\@writefile{lot}{\addvspace {10\p@ }}
\newlabel{initialConsiderations}{{1}{3}{Considerações iniciais\relax }{chapter.1}{}}
\@writefile{toc}{\contentsline {section}{\numberline {1.1}Rela\IeC {\c c}\IeC {\~a}o \emph  {happens-before} entre opera\IeC {\c c}\IeC {\~o}es}{3}{section.1.1}}
\BKM@entry{id=6,open,dest={636861707465722E32},srcline={196}}{32205375626D6973735C3334336F206465204F706572615C3334375C3336356573}
\BKM@entry{id=7,open,dest={73656374696F6E2E322E31},srcline={207}}{322E312073696E676C652D6D6173746572}
\BKM@entry{id=8,open,dest={73656374696F6E2E322E32},srcline={220}}{322E32206D756C74692D6D6173746572}
\BKM@entry{id=9,open,dest={73656374696F6E2E322E33},srcline={233}}{322E3320436F6E7369646572615C3334375C333635657320736F6272652061207375626D6973735C3334336F206465206F706572615C3334375C3336356573}
\@writefile{toc}{\contentsline {chapter}{\numberline {2}Submiss\IeC {\~a}o de Opera\IeC {\c c}\IeC {\~o}es}{5}{chapter.2}}
\@writefile{lof}{\addvspace {10\p@ }}
\@writefile{lot}{\addvspace {10\p@ }}
\newlabel{operationSubmission}{{2}{5}{Submissão de Operações\relax }{chapter.2}{}}
\@writefile{toc}{\contentsline {section}{\numberline {2.1}\emph  {single-master}}{5}{section.2.1}}
\@writefile{toc}{\contentsline {section}{\numberline {2.2}\emph  {multi-master}}{5}{section.2.2}}
\@writefile{toc}{\contentsline {section}{\numberline {2.3}Considera\IeC {\c c}\IeC {\~o}es sobre a submiss\IeC {\~a}o de opera\IeC {\c c}\IeC {\~o}es}{6}{section.2.3}}
\BKM@entry{id=10,open,dest={636861707465722E33},srcline={240}}{332050726F706167615C3334375C3334336F20646120617475616C697A615C3334375C3334336F}
\BKM@entry{id=11,open,dest={73656374696F6E2E332E31},srcline={259}}{332E31205472616E736665725C3335326E6369612064652065737461646F}
\BKM@entry{id=12,open,dest={73656374696F6E2E332E32},srcline={264}}{332E32205472616E736665725C3335326E636961206465206F706572615C3334375C3334336F}
\@writefile{toc}{\contentsline {chapter}{\numberline {3}Propaga\IeC {\c c}\IeC {\~a}o da atualiza\IeC {\c c}\IeC {\~a}o}{7}{chapter.3}}
\@writefile{lof}{\addvspace {10\p@ }}
\@writefile{lot}{\addvspace {10\p@ }}
\newlabel{replicationPropagation}{{3}{7}{Propagação da atualização\relax }{chapter.3}{}}
\@writefile{toc}{\contentsline {section}{\numberline {3.1}Transfer\IeC {\^e}ncia de estado}{7}{section.3.1}}
\@writefile{toc}{\contentsline {section}{\numberline {3.2}Transfer\IeC {\^e}ncia de opera\IeC {\c c}\IeC {\~a}o}{7}{section.3.2}}
\BKM@entry{id=13,open,dest={636861707465722E34},srcline={271}}{34204167656E64616D656E746F2064652065786563755C3334375C3334336F}
\BKM@entry{id=14,open,dest={73656374696F6E2E342E31},srcline={293}}{342E3120446574655C3334375C3334336F20646520636F6E666C69746F73}
\@writefile{toc}{\contentsline {chapter}{\numberline {4}Agendamento de execu\IeC {\c c}\IeC {\~a}o}{9}{chapter.4}}
\@writefile{lof}{\addvspace {10\p@ }}
\@writefile{lot}{\addvspace {10\p@ }}
\newlabel{executionScheduling}{{4}{9}{Agendamento de execução\relax }{chapter.4}{}}
\@writefile{toc}{\contentsline {section}{\numberline {4.1}Dete\IeC {\c c}\IeC {\~a}o de conflitos}{9}{section.4.1}}
\BKM@entry{id=15,open,dest={636861707465722E35},srcline={309}}{3520476573745C3334336F20646520436F6E666C69746F73}
\citation{optRep}
\citation{bayouBib}
\citation{bayouBib}
\@writefile{toc}{\contentsline {chapter}{\numberline {5}Gest\IeC {\~a}o de Conflitos}{11}{chapter.5}}
\@writefile{lof}{\addvspace {10\p@ }}
\@writefile{lot}{\addvspace {10\p@ }}
\newlabel{conflitManagement}{{5}{11}{Gestão de Conflitos\relax }{chapter.5}{}}
\BKM@entry{id=16,open,dest={636861707465722E36},srcline={345}}{3620436F6E636C7569722061206F706572615C3334375C3334336F}
\@writefile{toc}{\contentsline {chapter}{\numberline {6}Concluir a opera\IeC {\c c}\IeC {\~a}o}{13}{chapter.6}}
\@writefile{lof}{\addvspace {10\p@ }}
\@writefile{lot}{\addvspace {10\p@ }}
\newlabel{operationConclusion}{{6}{13}{Concluir a operação\relax }{chapter.6}{}}
\BKM@entry{id=17,open,dest={636861707465722A2E36},srcline={401}}{436F6E636C75735C3334336F}
\@writefile{toc}{\contentsline {chapter}{Conclus\IeC {\~a}o}{15}{chapter*.6}}
\BKM@entry{id=18,open,dest={636861707465722A2E37},srcline={438}}{52656665725C3335326E63696173}
\bibcite{optRep}{1}
\bibcite{highAvailLazyRep}{2}
\bibcite{dangerRepAndSol}{3}
\bibcite{lazyRep}{4}
\bibcite{icecubeApproach}{5}
\bibcite{bayouBib}{6}
\@writefile{toc}{\contentsline {chapter}{Refer\IeC {\^e}ncias}{17}{chapter*.7}}
