\relax 
\providecommand\BKM@entry[2]{}
\catcode`"\active
\providecommand\HyperFirstAtBeginDocument{\AtBeginDocument}
\HyperFirstAtBeginDocument{\ifx\hyper@anchor\@undefined
\global\let\oldcontentsline\contentsline
\gdef\contentsline#1#2#3#4{\oldcontentsline{#1}{#2}{#3}}
\global\let\oldnewlabel\newlabel
\gdef\newlabel#1#2{\newlabelxx{#1}#2}
\gdef\newlabelxx#1#2#3#4#5#6{\oldnewlabel{#1}{{#2}{#3}}}
\AtEndDocument{\ifx\hyper@anchor\@undefined
\let\contentsline\oldcontentsline
\let\newlabel\oldnewlabel
\fi}
\fi}
\global\let\hyper@last\relax 
\gdef\HyperFirstAtBeginDocument#1{#1}
\providecommand\HyField@AuxAddToFields[1]{}
\select@language{portuguese}
\@writefile{toc}{\select@language{portuguese}}
\@writefile{lof}{\select@language{portuguese}}
\@writefile{lot}{\select@language{portuguese}}
\BKM@entry{id=1,open,dest={446F632D5374617274},srcline={43}}{5C3331356E64696365}
\@writefile{toc}{\contentsline {chapter}{\IeC {\'I}ndice}{i}{Doc-Start}}
\BKM@entry{id=2,open,dest={636861707465722A2E31},srcline={60}}{4C697374612064652046696775726173}
\@writefile{toc}{\contentsline {chapter}{Lista de Figuras}{1}{chapter*.1}}
\BKM@entry{id=3,open,dest={636861707465722E31},srcline={80}}{3120496E74726F64755C3334375C3334336F}
\BKM@entry{id=4,open,dest={73656374696F6E2E312E31},srcline={82}}{312E3120456E7175616472616D656E746F}
\BKM@entry{id=5,open,dest={73656374696F6E2E312E32},srcline={93}}{312E322045737472757475726120646F20646F63756D656E746F}
\@writefile{toc}{\contentsline {chapter}{\numberline {1}Introdu\IeC {\c c}\IeC {\~a}o}{3}{chapter.1}}
\@writefile{lof}{\addvspace {10\p@ }}
\@writefile{lot}{\addvspace {10\p@ }}
\@writefile{toc}{\contentsline {section}{\numberline {1.1}Enquadramento}{3}{section.1.1}}
\@writefile{toc}{\contentsline {section}{\numberline {1.2}Estrutura do documento}{3}{section.1.2}}
\BKM@entry{id=6,open,dest={636861707465722E32},srcline={107}}{32204F626A657469766F73}
\@writefile{toc}{\contentsline {chapter}{\numberline {2}Objetivos}{5}{chapter.2}}
\@writefile{lof}{\addvspace {10\p@ }}
\@writefile{lot}{\addvspace {10\p@ }}
\newlabel{chap:objectives}{{2}{5}{Objetivos\relax }{chapter.2}{}}
\@writefile{lof}{\contentsline {figure}{\numberline {2.1}{\ignorespaces Esbo\IeC {\c c}o gen\IeC {\'e}rico do problema\relax }}{5}{figure.caption.3}}
\providecommand*\caption@xref[2]{\@setref\relax\@undefined{#1}}
\newlabel{fig:EsbocoGenerico}{{2.1}{5}{Esboço genérico do problema\relax \relax }{figure.caption.3}{}}
\BKM@entry{id=7,open,dest={636861707465722E33},srcline={128}}{3320416E5C3334316C69736520646F2053697374656D61}
\@writefile{toc}{\contentsline {chapter}{\numberline {3}An\IeC {\'a}lise do Sistema}{7}{chapter.3}}
\@writefile{lof}{\addvspace {10\p@ }}
\@writefile{lot}{\addvspace {10\p@ }}
\newlabel{chap:analisys}{{3}{7}{Análise do Sistema\relax }{chapter.3}{}}
\@writefile{lof}{\contentsline {figure}{\numberline {3.1}{\ignorespaces Arquitetura geral do sistema.\relax }}{7}{figure.caption.4}}
\newlabel{fig:EsbocoEnunciado}{{3.1}{7}{Arquitetura geral do sistema.\relax \relax }{figure.caption.4}{}}
\@writefile{lof}{\contentsline {figure}{\numberline {3.2}{\ignorespaces Sequ\IeC {\^e}ncia temporal de pedidos.\relax }}{8}{figure.caption.5}}
\newlabel{fig:DiagramadeSequencia}{{3.2}{8}{Sequência temporal de pedidos.\relax \relax }{figure.caption.5}{}}
\@writefile{lof}{\contentsline {figure}{\numberline {3.3}{\ignorespaces Load Balancer.\relax }}{9}{figure.caption.6}}
\newlabel{fig:EsbocoloadBalancer}{{3.3}{9}{Load Balancer.\relax \relax }{figure.caption.6}{}}
\@writefile{lof}{\contentsline {figure}{\numberline {3.4}{\ignorespaces Executer.\relax }}{9}{figure.caption.7}}
\newlabel{fig:EsbocoExecuter}{{3.4}{9}{Executer.\relax \relax }{figure.caption.7}{}}
\@writefile{lof}{\contentsline {figure}{\numberline {3.5}{\ignorespaces Batch Server.\relax }}{10}{figure.caption.8}}
\newlabel{fig:EsbocoBatchServer}{{3.5}{10}{Batch Server.\relax \relax }{figure.caption.8}{}}
\BKM@entry{id=8,open,dest={636861707465722E34},srcline={227}}{3420446573656E766F6C76696D656E746F}
\BKM@entry{id=9,open,dest={73656374696F6E2E342E31},srcline={230}}{342E31204172717569746574757261206520726573706F6E736162696C6964616465732064617320656E74696461646573}
\BKM@entry{id=10,open,dest={73756273656374696F6E2E342E312E31},srcline={234}}{342E312E3120456E746964616465202727436C69656E742727}
\@writefile{toc}{\contentsline {chapter}{\numberline {4}Desenvolvimento}{11}{chapter.4}}
\@writefile{lof}{\addvspace {10\p@ }}
\@writefile{lot}{\addvspace {10\p@ }}
\newlabel{chap:development}{{4}{11}{Desenvolvimento\relax }{chapter.4}{}}
\@writefile{toc}{\contentsline {section}{\numberline {4.1}Arquitetura e responsabilidades das entidades}{11}{section.4.1}}
\@writefile{toc}{\contentsline {subsection}{\numberline {4.1.1}Entidade ''Client''}{11}{subsection.4.1.1}}
\@writefile{lof}{\contentsline {figure}{\numberline {4.1}{\ignorespaces Interface de implementa\IeC {\c c}\IeC {\~a}o do Load Balancer vis\IeC {\'\i }vel ao cliente.\relax }}{11}{figure.caption.9}}
\newlabel{fig:InterfaceImplementacaoCliente}{{4.1}{11}{Interface de implementação do Load Balancer visível ao cliente.\relax \relax }{figure.caption.9}{}}
\BKM@entry{id=11,open,dest={73756273656374696F6E2E342E312E32},srcline={260}}{342E312E3220456E74696461646520272745786563757465722727}
\@writefile{toc}{\contentsline {subsection}{\numberline {4.1.2}Entidade ''Executer''}{12}{subsection.4.1.2}}
\@writefile{lof}{\contentsline {figure}{\numberline {4.2}{\ignorespaces Interface de implementa\IeC {\c c}\IeC {\~a}o do Load Balancer vis\IeC {\'\i }vel ao Executer.\relax }}{12}{figure.caption.10}}
\newlabel{fig:InterfaceImplementacaoExecuter}{{4.2}{12}{Interface de implementação do Load Balancer visível ao Executer.\relax \relax }{figure.caption.10}{}}
\@writefile{lof}{\contentsline {figure}{\numberline {4.3}{\ignorespaces Interface do Executer.\relax }}{12}{figure.caption.11}}
\newlabel{fig:InterfaceExecuter}{{4.3}{12}{Interface do Executer.\relax \relax }{figure.caption.11}{}}
\BKM@entry{id=12,open,dest={73756273656374696F6E2E342E312E33},srcline={294}}{342E312E3320456E7469646164652027274C6F61642042616C616E6365722727}
\@writefile{lof}{\contentsline {figure}{\numberline {4.4}{\ignorespaces Classe JobRequest.\relax }}{13}{figure.caption.12}}
\newlabel{fig:JobRequestDiagram}{{4.4}{13}{Classe JobRequest.\relax \relax }{figure.caption.12}{}}
\@writefile{toc}{\contentsline {subsection}{\numberline {4.1.3}Entidade ''Load Balancer''}{13}{subsection.4.1.3}}
\@writefile{lof}{\contentsline {figure}{\numberline {4.5}{\ignorespaces Intera\IeC {\c c}\IeC {\~a}o do Load Balancer com o Executer.\relax }}{13}{figure.caption.13}}
\newlabel{fig:requestLoadBalancerExecuter}{{4.5}{13}{Interação do Load Balancer com o Executer.\relax \relax }{figure.caption.13}{}}
\BKM@entry{id=13,open,dest={73656374696F6E2E342E32},srcline={323}}{342E32204D6F646F2064652041746976615C3334375C3334336F206465204F626A65746F73}
\BKM@entry{id=14,open,dest={73756273656374696F6E2E342E322E31},srcline={326}}{342E322E31204D6F646F2064652061746976615C3334375C3334336F206465206F626A65746F732072656D6F746F73}
\citation{introToRemoting}
\@writefile{lof}{\contentsline {figure}{\numberline {4.6}{\ignorespaces Intera\IeC {\c c}\IeC {\~a}o do Client com o Load Balancer.\relax }}{14}{figure.caption.14}}
\newlabel{fig:requestClientLoadBalancer}{{4.6}{14}{Interação do Client com o Load Balancer.\relax \relax }{figure.caption.14}{}}
\@writefile{toc}{\contentsline {section}{\numberline {4.2}Modo de Ativa\IeC {\c c}\IeC {\~a}o de Objetos}{14}{section.4.2}}
\@writefile{toc}{\contentsline {subsection}{\numberline {4.2.1}Modo de ativa\IeC {\c c}\IeC {\~a}o de objetos remotos}{14}{subsection.4.2.1}}
\BKM@entry{id=15,open,dest={73756273656374696F6E2E342E322E32},srcline={340}}{342E322E3220545C333531636E69636173206465206D616E7574656E5C3334375C3334336F2064652065737461646F}
\BKM@entry{id=16,open,dest={73756273656374696F6E2E342E322E33},srcline={346}}{342E322E33204D6563616E69736D6F7320646520636F6E74726F6C6F20646520636F6E636F72725C3335326E636961207574696C697A61646F73}
\BKM@entry{id=17,open,dest={73656374696F6E2E342E33},srcline={357}}{342E3320546F6C65725C3334326E63696120612066616C686173}
\BKM@entry{id=18,open,dest={73756273656374696F6E2E342E332E31},srcline={365}}{342E332E312046616C686173206E6F202727436C69656E742727}
\BKM@entry{id=19,open,dest={73756273656374696F6E2E342E332E32},srcline={369}}{342E332E322046616C686173206E6F20272745786563757465722727}
\@writefile{toc}{\contentsline {subsection}{\numberline {4.2.2}T\IeC {\'e}cnicas de manuten\IeC {\c c}\IeC {\~a}o de estado}{15}{subsection.4.2.2}}
\@writefile{toc}{\contentsline {subsection}{\numberline {4.2.3}Mecanismos de controlo de concorr\IeC {\^e}ncia utilizados}{15}{subsection.4.2.3}}
\@writefile{toc}{\contentsline {section}{\numberline {4.3}Toler\IeC {\^a}ncia a falhas}{15}{section.4.3}}
\@writefile{toc}{\contentsline {subsection}{\numberline {4.3.1}Falhas no ''Client''}{15}{subsection.4.3.1}}
\@writefile{toc}{\contentsline {subsection}{\numberline {4.3.2}Falhas no ''Executer''}{15}{subsection.4.3.2}}
\BKM@entry{id=20,open,dest={73756273656374696F6E2E342E332E33},srcline={404}}{342E332E332046616C686173206E6F2027274C6F61642042616C616E6365722727}
\@writefile{toc}{\contentsline {subsection}{\numberline {4.3.3}Falhas no ''Load Balancer''}{16}{subsection.4.3.3}}
\BKM@entry{id=21,open,dest={636861707465722E35},srcline={417}}{3520436F6E636C75735C3334336F}
\BKM@entry{id=22,open,dest={636861707465722E35},srcline={419}}{436F6E636C75735C3334336F}
\@writefile{toc}{\contentsline {chapter}{\numberline {5}Conclus\IeC {\~a}o}{17}{chapter.5}}
\@writefile{lof}{\addvspace {10\p@ }}
\@writefile{lot}{\addvspace {10\p@ }}
\newlabel{chap:conclusion}{{5}{17}{Conclusão\relax }{chapter.5}{}}
\@writefile{toc}{\contentsline {chapter}{Conclus\IeC {\~a}o}{17}{chapter.5}}
\BKM@entry{id=23,open,dest={636861707465722A2E3135},srcline={432}}{52656665725C3335326E63696173}
\bibcite{sdSlides}{1}
\bibcite{introToRemoting}{2}
\bibcite{improveRemoting}{3}
\bibcite{sdAdvancedBook}{4}
\@writefile{toc}{\contentsline {chapter}{Refer\IeC {\^e}ncias}{19}{chapter*.15}}
